{"gender": "M", "age": "24", "user id": "1", "zipcode": "85711", "occupation": "technician"}
{"gender": "F", "age": "53", "user id": "2", "zipcode": "94043", "occupation": "other"}
{"gender": "M", "age": "23", "user id": "3", "zipcode": "32067", "occupation": "writer"}
{"gender": "M", "age": "24", "user id": "4", "zipcode": "43537", "occupation": "technician"}
{"gender": "F", "age": "33", "user id": "5", "zipcode": "15213", "occupation": "other"}
{"gender": "M", "age": "42", "user id": "6", "zipcode": "98101", "occupation": "executive"}
{"gender": "M", "age": "57", "user id": "7", "zipcode": "91344", "occupation": "administrator"}
{"gender": "M", "age": "36", "user id": "8", "zipcode": "05201", "occupation": "administrator"}
{"gender": "M", "age": "29", "user id": "9", "zipcode": "01002", "occupation": "student"}
{"gender": "M", "age": "53", "user id": "10", "zipcode": "90703", "occupation": "lawyer"}
{"gender": "F", "age": "39", "user id": "11", "zipcode": "30329", "occupation": "other"}
{"gender": "F", "age": "28", "user id": "12", "zipcode": "06405", "occupation": "other"}
{"gender": "M", "age": "47", "user id": "13", "zipcode": "29206", "occupation": "educator"}
{"gender": "M", "age": "45", "user id": "14", "zipcode": "55106", "occupation": "scientist"}
{"gender": "F", "age": "49", "user id": "15", "zipcode": "97301", "occupation": "educator"}
{"gender": "M", "age": "21", "user id": "16", "zipcode": "10309", "occupation": "entertainment"}
{"gender": "M", "age": "30", "user id": "17", "zipcode": "06355", "occupation": "programmer"}
{"gender": "F", "age": "35", "user id": "18", "zipcode": "37212", "occupation": "other"}
{"gender": "M", "age": "40", "user id": "19", "zipcode": "02138", "occupation": "librarian"}
{"gender": "F", "age": "42", "user id": "20", "zipcode": "95660", "occupation": "homemaker"}
{"gender": "M", "age": "26", "user id": "21", "zipcode": "30068", "occupation": "writer"}
{"gender": "M", "age": "25", "user id": "22", "zipcode": "40206", "occupation": "writer"}
{"gender": "F", "age": "30", "user id": "23", "zipcode": "48197", "occupation": "artist"}
{"gender": "F", "age": "21", "user id": "24", "zipcode": "94533", "occupation": "artist"}
{"gender": "M", "age": "39", "user id": "25", "zipcode": "55107", "occupation": "engineer"}
{"gender": "M", "age": "49", "user id": "26", "zipcode": "21044", "occupation": "engineer"}
{"gender": "F", "age": "40", "user id": "27", "zipcode": "30030", "occupation": "librarian"}
{"gender": "M", "age": "32", "user id": "28", "zipcode": "55369", "occupation": "writer"}
{"gender": "M", "age": "41", "user id": "29", "zipcode": "94043", "occupation": "programmer"}
{"gender": "M", "age": "7", "user id": "30", "zipcode": "55436", "occupation": "student"}
{"gender": "M", "age": "24", "user id": "31", "zipcode": "10003", "occupation": "artist"}
{"gender": "F", "age": "28", "user id": "32", "zipcode": "78741", "occupation": "student"}
{"gender": "M", "age": "23", "user id": "33", "zipcode": "27510", "occupation": "student"}
{"gender": "F", "age": "38", "user id": "34", "zipcode": "42141", "occupation": "administrator"}
{"gender": "F", "age": "20", "user id": "35", "zipcode": "42459", "occupation": "homemaker"}
{"gender": "F", "age": "19", "user id": "36", "zipcode": "93117", "occupation": "student"}
{"gender": "M", "age": "23", "user id": "37", "zipcode": "55105", "occupation": "student"}
{"gender": "F", "age": "28", "user id": "38", "zipcode": "54467", "occupation": "other"}
{"gender": "M", "age": "41", "user id": "39", "zipcode": "01040", "occupation": "entertainment"}
{"gender": "M", "age": "38", "user id": "40", "zipcode": "27514", "occupation": "scientist"}
{"gender": "M", "age": "33", "user id": "41", "zipcode": "80525", "occupation": "engineer"}
{"gender": "M", "age": "30", "user id": "42", "zipcode": "17870", "occupation": "administrator"}
{"gender": "F", "age": "29", "user id": "43", "zipcode": "20854", "occupation": "librarian"}
{"gender": "M", "age": "26", "user id": "44", "zipcode": "46260", "occupation": "technician"}
{"gender": "M", "age": "29", "user id": "45", "zipcode": "50233", "occupation": "programmer"}
{"gender": "F", "age": "27", "user id": "46", "zipcode": "46538", "occupation": "marketing"}
{"gender": "M", "age": "53", "user id": "47", "zipcode": "07102", "occupation": "marketing"}
{"gender": "M", "age": "45", "user id": "48", "zipcode": "12550", "occupation": "administrator"}
{"gender": "F", "age": "23", "user id": "49", "zipcode": "76111", "occupation": "student"}
{"gender": "M", "age": "21", "user id": "50", "zipcode": "52245", "occupation": "writer"}
{"gender": "M", "age": "28", "user id": "51", "zipcode": "16509", "occupation": "educator"}
{"gender": "F", "age": "18", "user id": "52", "zipcode": "55105", "occupation": "student"}
{"gender": "M", "age": "26", "user id": "53", "zipcode": "55414", "occupation": "programmer"}
{"gender": "M", "age": "22", "user id": "54", "zipcode": "66315", "occupation": "executive"}
{"gender": "M", "age": "37", "user id": "55", "zipcode": "01331", "occupation": "programmer"}
{"gender": "M", "age": "25", "user id": "56", "zipcode": "46260", "occupation": "librarian"}
{"gender": "M", "age": "16", "user id": "57", "zipcode": "84010", "occupation": "none"}
{"gender": "M", "age": "27", "user id": "58", "zipcode": "52246", "occupation": "programmer"}
{"gender": "M", "age": "49", "user id": "59", "zipcode": "08403", "occupation": "educator"}
{"gender": "M", "age": "50", "user id": "60", "zipcode": "06472", "occupation": "healthcare"}
{"gender": "M", "age": "36", "user id": "61", "zipcode": "30040", "occupation": "engineer"}
{"gender": "F", "age": "27", "user id": "62", "zipcode": "97214", "occupation": "administrator"}
{"gender": "M", "age": "31", "user id": "63", "zipcode": "75240", "occupation": "marketing"}
{"gender": "M", "age": "32", "user id": "64", "zipcode": "43202", "occupation": "educator"}
{"gender": "F", "age": "51", "user id": "65", "zipcode": "48118", "occupation": "educator"}
{"gender": "M", "age": "23", "user id": "66", "zipcode": "80521", "occupation": "student"}
{"gender": "M", "age": "17", "user id": "67", "zipcode": "60402", "occupation": "student"}
{"gender": "M", "age": "19", "user id": "68", "zipcode": "22904", "occupation": "student"}
{"gender": "M", "age": "24", "user id": "69", "zipcode": "55337", "occupation": "engineer"}
{"gender": "M", "age": "27", "user id": "70", "zipcode": "60067", "occupation": "engineer"}
{"gender": "M", "age": "39", "user id": "71", "zipcode": "98034", "occupation": "scientist"}
{"gender": "F", "age": "48", "user id": "72", "zipcode": "73034", "occupation": "administrator"}
{"gender": "M", "age": "24", "user id": "73", "zipcode": "41850", "occupation": "student"}
{"gender": "M", "age": "39", "user id": "74", "zipcode": "T8H1N", "occupation": "scientist"}
{"gender": "M", "age": "24", "user id": "75", "zipcode": "08816", "occupation": "entertainment"}
{"gender": "M", "age": "20", "user id": "76", "zipcode": "02215", "occupation": "student"}
{"gender": "M", "age": "30", "user id": "77", "zipcode": "29379", "occupation": "technician"}
{"gender": "M", "age": "26", "user id": "78", "zipcode": "61801", "occupation": "administrator"}
{"gender": "F", "age": "39", "user id": "79", "zipcode": "03755", "occupation": "administrator"}
{"gender": "F", "age": "34", "user id": "80", "zipcode": "52241", "occupation": "administrator"}
{"gender": "M", "age": "21", "user id": "81", "zipcode": "21218", "occupation": "student"}
{"gender": "M", "age": "50", "user id": "82", "zipcode": "22902", "occupation": "programmer"}
{"gender": "M", "age": "40", "user id": "83", "zipcode": "44133", "occupation": "other"}
{"gender": "M", "age": "32", "user id": "84", "zipcode": "55369", "occupation": "executive"}
{"gender": "M", "age": "51", "user id": "85", "zipcode": "20003", "occupation": "educator"}
{"gender": "M", "age": "26", "user id": "86", "zipcode": "46005", "occupation": "administrator"}
{"gender": "M", "age": "47", "user id": "87", "zipcode": "89503", "occupation": "administrator"}
{"gender": "F", "age": "49", "user id": "88", "zipcode": "11701", "occupation": "librarian"}
{"gender": "F", "age": "43", "user id": "89", "zipcode": "68106", "occupation": "administrator"}
{"gender": "M", "age": "60", "user id": "90", "zipcode": "78155", "occupation": "educator"}
{"gender": "M", "age": "55", "user id": "91", "zipcode": "01913", "occupation": "marketing"}
{"gender": "M", "age": "32", "user id": "92", "zipcode": "80525", "occupation": "entertainment"}
{"gender": "M", "age": "48", "user id": "93", "zipcode": "23112", "occupation": "executive"}
{"gender": "M", "age": "26", "user id": "94", "zipcode": "71457", "occupation": "student"}
{"gender": "M", "age": "31", "user id": "95", "zipcode": "10707", "occupation": "administrator"}
{"gender": "F", "age": "25", "user id": "96", "zipcode": "75206", "occupation": "artist"}
{"gender": "M", "age": "43", "user id": "97", "zipcode": "98006", "occupation": "artist"}
{"gender": "F", "age": "49", "user id": "98", "zipcode": "90291", "occupation": "executive"}
{"gender": "M", "age": "20", "user id": "99", "zipcode": "63129", "occupation": "student"}
{"gender": "M", "age": "36", "user id": "100", "zipcode": "90254", "occupation": "executive"}
{"gender": "M", "age": "15", "user id": "101", "zipcode": "05146", "occupation": "student"}
{"gender": "M", "age": "38", "user id": "102", "zipcode": "30220", "occupation": "programmer"}
{"gender": "M", "age": "26", "user id": "103", "zipcode": "55108", "occupation": "student"}
{"gender": "M", "age": "27", "user id": "104", "zipcode": "55108", "occupation": "student"}
{"gender": "M", "age": "24", "user id": "105", "zipcode": "94043", "occupation": "engineer"}
{"gender": "M", "age": "61", "user id": "106", "zipcode": "55125", "occupation": "retired"}
{"gender": "M", "age": "39", "user id": "107", "zipcode": "60466", "occupation": "scientist"}
{"gender": "M", "age": "44", "user id": "108", "zipcode": "63130", "occupation": "educator"}
{"gender": "M", "age": "29", "user id": "109", "zipcode": "55423", "occupation": "other"}
{"gender": "M", "age": "19", "user id": "110", "zipcode": "77840", "occupation": "student"}
{"gender": "M", "age": "57", "user id": "111", "zipcode": "90630", "occupation": "engineer"}
{"gender": "M", "age": "30", "user id": "112", "zipcode": "60613", "occupation": "salesman"}
{"gender": "M", "age": "47", "user id": "113", "zipcode": "95032", "occupation": "executive"}
{"gender": "M", "age": "27", "user id": "114", "zipcode": "75013", "occupation": "programmer"}
{"gender": "M", "age": "31", "user id": "115", "zipcode": "17110", "occupation": "engineer"}
{"gender": "M", "age": "40", "user id": "116", "zipcode": "97232", "occupation": "healthcare"}
{"gender": "M", "age": "20", "user id": "117", "zipcode": "16125", "occupation": "student"}
{"gender": "M", "age": "21", "user id": "118", "zipcode": "90210", "occupation": "administrator"}
{"gender": "M", "age": "32", "user id": "119", "zipcode": "67401", "occupation": "programmer"}
{"gender": "F", "age": "47", "user id": "120", "zipcode": "06260", "occupation": "other"}
{"gender": "M", "age": "54", "user id": "121", "zipcode": "99603", "occupation": "librarian"}
{"gender": "F", "age": "32", "user id": "122", "zipcode": "22206", "occupation": "writer"}
{"gender": "F", "age": "48", "user id": "123", "zipcode": "20008", "occupation": "artist"}
{"gender": "M", "age": "34", "user id": "124", "zipcode": "60615", "occupation": "student"}
{"gender": "M", "age": "30", "user id": "125", "zipcode": "22202", "occupation": "lawyer"}
{"gender": "F", "age": "28", "user id": "126", "zipcode": "20015", "occupation": "lawyer"}
{"gender": "M", "age": "33", "user id": "127", "zipcode": "73439", "occupation": "none"}
{"gender": "F", "age": "24", "user id": "128", "zipcode": "20009", "occupation": "marketing"}
{"gender": "F", "age": "36", "user id": "129", "zipcode": "07039", "occupation": "marketing"}
{"gender": "M", "age": "20", "user id": "130", "zipcode": "60115", "occupation": "none"}
{"gender": "F", "age": "59", "user id": "131", "zipcode": "15237", "occupation": "administrator"}
{"gender": "M", "age": "24", "user id": "132", "zipcode": "94612", "occupation": "other"}
{"gender": "M", "age": "53", "user id": "133", "zipcode": "78602", "occupation": "engineer"}
{"gender": "M", "age": "31", "user id": "134", "zipcode": "80236", "occupation": "programmer"}
{"gender": "M", "age": "23", "user id": "135", "zipcode": "38401", "occupation": "student"}
{"gender": "M", "age": "51", "user id": "136", "zipcode": "97365", "occupation": "other"}
{"gender": "M", "age": "50", "user id": "137", "zipcode": "84408", "occupation": "educator"}
{"gender": "M", "age": "46", "user id": "138", "zipcode": "53211", "occupation": "doctor"}
{"gender": "M", "age": "20", "user id": "139", "zipcode": "08904", "occupation": "student"}
{"gender": "F", "age": "30", "user id": "140", "zipcode": "32250", "occupation": "student"}
{"gender": "M", "age": "49", "user id": "141", "zipcode": "36117", "occupation": "programmer"}
{"gender": "M", "age": "13", "user id": "142", "zipcode": "48118", "occupation": "other"}
{"gender": "M", "age": "42", "user id": "143", "zipcode": "08832", "occupation": "technician"}
{"gender": "M", "age": "53", "user id": "144", "zipcode": "20910", "occupation": "programmer"}
{"gender": "M", "age": "31", "user id": "145", "zipcode": "V3N4P", "occupation": "entertainment"}
{"gender": "M", "age": "45", "user id": "146", "zipcode": "83814", "occupation": "artist"}
{"gender": "F", "age": "40", "user id": "147", "zipcode": "02143", "occupation": "librarian"}
{"gender": "M", "age": "33", "user id": "148", "zipcode": "97006", "occupation": "engineer"}
{"gender": "F", "age": "35", "user id": "149", "zipcode": "17325", "occupation": "marketing"}
{"gender": "F", "age": "20", "user id": "150", "zipcode": "02139", "occupation": "artist"}
{"gender": "F", "age": "38", "user id": "151", "zipcode": "48103", "occupation": "administrator"}
{"gender": "F", "age": "33", "user id": "152", "zipcode": "68767", "occupation": "educator"}
{"gender": "M", "age": "25", "user id": "153", "zipcode": "60641", "occupation": "student"}
{"gender": "M", "age": "25", "user id": "154", "zipcode": "53703", "occupation": "student"}
{"gender": "F", "age": "32", "user id": "155", "zipcode": "11217", "occupation": "other"}
{"gender": "M", "age": "25", "user id": "156", "zipcode": "08360", "occupation": "educator"}
{"gender": "M", "age": "57", "user id": "157", "zipcode": "70808", "occupation": "engineer"}
{"gender": "M", "age": "50", "user id": "158", "zipcode": "27606", "occupation": "educator"}
{"gender": "F", "age": "23", "user id": "159", "zipcode": "55346", "occupation": "student"}
{"gender": "M", "age": "27", "user id": "160", "zipcode": "66215", "occupation": "programmer"}
{"gender": "M", "age": "50", "user id": "161", "zipcode": "55104", "occupation": "lawyer"}
{"gender": "M", "age": "25", "user id": "162", "zipcode": "15610", "occupation": "artist"}
{"gender": "M", "age": "49", "user id": "163", "zipcode": "97212", "occupation": "administrator"}
{"gender": "M", "age": "47", "user id": "164", "zipcode": "80123", "occupation": "healthcare"}
{"gender": "F", "age": "20", "user id": "165", "zipcode": "53715", "occupation": "other"}
{"gender": "M", "age": "47", "user id": "166", "zipcode": "55113", "occupation": "educator"}
{"gender": "M", "age": "37", "user id": "167", "zipcode": "L9G2B", "occupation": "other"}
{"gender": "M", "age": "48", "user id": "168", "zipcode": "80127", "occupation": "other"}
{"gender": "F", "age": "52", "user id": "169", "zipcode": "53705", "occupation": "other"}
{"gender": "F", "age": "53", "user id": "170", "zipcode": "30067", "occupation": "healthcare"}
{"gender": "F", "age": "48", "user id": "171", "zipcode": "78750", "occupation": "educator"}
{"gender": "M", "age": "55", "user id": "172", "zipcode": "22207", "occupation": "marketing"}
{"gender": "M", "age": "56", "user id": "173", "zipcode": "22306", "occupation": "other"}
{"gender": "F", "age": "30", "user id": "174", "zipcode": "52302", "occupation": "administrator"}
{"gender": "F", "age": "26", "user id": "175", "zipcode": "21911", "occupation": "scientist"}
{"gender": "M", "age": "28", "user id": "176", "zipcode": "07030", "occupation": "scientist"}
{"gender": "M", "age": "20", "user id": "177", "zipcode": "19104", "occupation": "programmer"}
{"gender": "M", "age": "26", "user id": "178", "zipcode": "49512", "occupation": "other"}
{"gender": "M", "age": "15", "user id": "179", "zipcode": "20755", "occupation": "entertainment"}
{"gender": "F", "age": "22", "user id": "180", "zipcode": "60202", "occupation": "administrator"}
{"gender": "M", "age": "26", "user id": "181", "zipcode": "21218", "occupation": "executive"}
{"gender": "M", "age": "36", "user id": "182", "zipcode": "33884", "occupation": "programmer"}
{"gender": "M", "age": "33", "user id": "183", "zipcode": "27708", "occupation": "scientist"}
{"gender": "M", "age": "37", "user id": "184", "zipcode": "76013", "occupation": "librarian"}
{"gender": "F", "age": "53", "user id": "185", "zipcode": "97403", "occupation": "librarian"}
{"gender": "F", "age": "39", "user id": "186", "zipcode": "00000", "occupation": "executive"}
{"gender": "M", "age": "26", "user id": "187", "zipcode": "16801", "occupation": "educator"}
{"gender": "M", "age": "42", "user id": "188", "zipcode": "29440", "occupation": "student"}
{"gender": "M", "age": "32", "user id": "189", "zipcode": "95014", "occupation": "artist"}
{"gender": "M", "age": "30", "user id": "190", "zipcode": "95938", "occupation": "administrator"}
{"gender": "M", "age": "33", "user id": "191", "zipcode": "95161", "occupation": "administrator"}
{"gender": "M", "age": "42", "user id": "192", "zipcode": "90840", "occupation": "educator"}
{"gender": "M", "age": "29", "user id": "193", "zipcode": "49931", "occupation": "student"}
{"gender": "M", "age": "38", "user id": "194", "zipcode": "02154", "occupation": "administrator"}
{"gender": "M", "age": "42", "user id": "195", "zipcode": "93555", "occupation": "scientist"}
{"gender": "M", "age": "49", "user id": "196", "zipcode": "55105", "occupation": "writer"}
{"gender": "M", "age": "55", "user id": "197", "zipcode": "75094", "occupation": "technician"}
{"gender": "F", "age": "21", "user id": "198", "zipcode": "55414", "occupation": "student"}
{"gender": "M", "age": "30", "user id": "199", "zipcode": "17604", "occupation": "writer"}
{"gender": "M", "age": "40", "user id": "200", "zipcode": "93402", "occupation": "programmer"}
{"gender": "M", "age": "27", "user id": "201", "zipcode": "E2A4H", "occupation": "writer"}
{"gender": "F", "age": "41", "user id": "202", "zipcode": "60201", "occupation": "educator"}
{"gender": "F", "age": "25", "user id": "203", "zipcode": "32301", "occupation": "student"}
{"gender": "F", "age": "52", "user id": "204", "zipcode": "10960", "occupation": "librarian"}
{"gender": "M", "age": "47", "user id": "205", "zipcode": "06371", "occupation": "lawyer"}
{"gender": "F", "age": "14", "user id": "206", "zipcode": "53115", "occupation": "student"}
{"gender": "M", "age": "39", "user id": "207", "zipcode": "92037", "occupation": "marketing"}
{"gender": "M", "age": "43", "user id": "208", "zipcode": "01720", "occupation": "engineer"}
{"gender": "F", "age": "33", "user id": "209", "zipcode": "85710", "occupation": "educator"}
{"gender": "M", "age": "39", "user id": "210", "zipcode": "03060", "occupation": "engineer"}
{"gender": "M", "age": "66", "user id": "211", "zipcode": "32605", "occupation": "salesman"}
{"gender": "F", "age": "49", "user id": "212", "zipcode": "61401", "occupation": "educator"}
{"gender": "M", "age": "33", "user id": "213", "zipcode": "55345", "occupation": "executive"}
{"gender": "F", "age": "26", "user id": "214", "zipcode": "11231", "occupation": "librarian"}
{"gender": "M", "age": "35", "user id": "215", "zipcode": "63033", "occupation": "programmer"}
{"gender": "M", "age": "22", "user id": "216", "zipcode": "02215", "occupation": "engineer"}
{"gender": "M", "age": "22", "user id": "217", "zipcode": "11727", "occupation": "other"}
{"gender": "M", "age": "37", "user id": "218", "zipcode": "06513", "occupation": "administrator"}
{"gender": "M", "age": "32", "user id": "219", "zipcode": "43212", "occupation": "programmer"}
{"gender": "M", "age": "30", "user id": "220", "zipcode": "78205", "occupation": "librarian"}
{"gender": "M", "age": "19", "user id": "221", "zipcode": "20685", "occupation": "student"}
{"gender": "M", "age": "29", "user id": "222", "zipcode": "27502", "occupation": "programmer"}
{"gender": "F", "age": "19", "user id": "223", "zipcode": "47906", "occupation": "student"}
{"gender": "F", "age": "31", "user id": "224", "zipcode": "43512", "occupation": "educator"}
{"gender": "F", "age": "51", "user id": "225", "zipcode": "58202", "occupation": "administrator"}
{"gender": "M", "age": "28", "user id": "226", "zipcode": "92103", "occupation": "student"}
{"gender": "M", "age": "46", "user id": "227", "zipcode": "60659", "occupation": "executive"}
{"gender": "F", "age": "21", "user id": "228", "zipcode": "22003", "occupation": "student"}
{"gender": "F", "age": "29", "user id": "229", "zipcode": "22903", "occupation": "librarian"}
{"gender": "F", "age": "28", "user id": "230", "zipcode": "14476", "occupation": "student"}
{"gender": "M", "age": "48", "user id": "231", "zipcode": "01080", "occupation": "librarian"}
{"gender": "M", "age": "45", "user id": "232", "zipcode": "99709", "occupation": "scientist"}
{"gender": "M", "age": "38", "user id": "233", "zipcode": "98682", "occupation": "engineer"}
{"gender": "M", "age": "60", "user id": "234", "zipcode": "94702", "occupation": "retired"}
{"gender": "M", "age": "37", "user id": "235", "zipcode": "22973", "occupation": "educator"}
{"gender": "F", "age": "44", "user id": "236", "zipcode": "53214", "occupation": "writer"}
{"gender": "M", "age": "49", "user id": "237", "zipcode": "63146", "occupation": "administrator"}
{"gender": "F", "age": "42", "user id": "238", "zipcode": "44124", "occupation": "administrator"}
{"gender": "M", "age": "39", "user id": "239", "zipcode": "95628", "occupation": "artist"}
{"gender": "F", "age": "23", "user id": "240", "zipcode": "20784", "occupation": "educator"}
{"gender": "F", "age": "26", "user id": "241", "zipcode": "20001", "occupation": "student"}
{"gender": "M", "age": "33", "user id": "242", "zipcode": "31404", "occupation": "educator"}
{"gender": "M", "age": "33", "user id": "243", "zipcode": "60201", "occupation": "educator"}
{"gender": "M", "age": "28", "user id": "244", "zipcode": "80525", "occupation": "technician"}
{"gender": "M", "age": "22", "user id": "245", "zipcode": "55109", "occupation": "student"}
{"gender": "M", "age": "19", "user id": "246", "zipcode": "28734", "occupation": "student"}
{"gender": "M", "age": "28", "user id": "247", "zipcode": "20770", "occupation": "engineer"}
{"gender": "M", "age": "25", "user id": "248", "zipcode": "37235", "occupation": "student"}
{"gender": "M", "age": "25", "user id": "249", "zipcode": "84103", "occupation": "student"}
{"gender": "M", "age": "29", "user id": "250", "zipcode": "95110", "occupation": "executive"}
{"gender": "M", "age": "28", "user id": "251", "zipcode": "85032", "occupation": "doctor"}
{"gender": "M", "age": "42", "user id": "252", "zipcode": "07733", "occupation": "engineer"}
{"gender": "F", "age": "26", "user id": "253", "zipcode": "22903", "occupation": "librarian"}
{"gender": "M", "age": "44", "user id": "254", "zipcode": "42647", "occupation": "educator"}
{"gender": "M", "age": "23", "user id": "255", "zipcode": "07029", "occupation": "entertainment"}
{"gender": "F", "age": "35", "user id": "256", "zipcode": "39042", "occupation": "none"}
{"gender": "M", "age": "17", "user id": "257", "zipcode": "77005", "occupation": "student"}
{"gender": "F", "age": "19", "user id": "258", "zipcode": "77801", "occupation": "student"}
{"gender": "M", "age": "21", "user id": "259", "zipcode": "48823", "occupation": "student"}
{"gender": "F", "age": "40", "user id": "260", "zipcode": "89801", "occupation": "artist"}
{"gender": "M", "age": "28", "user id": "261", "zipcode": "85202", "occupation": "administrator"}
{"gender": "F", "age": "19", "user id": "262", "zipcode": "78264", "occupation": "student"}
{"gender": "M", "age": "41", "user id": "263", "zipcode": "55346", "occupation": "programmer"}
{"gender": "F", "age": "36", "user id": "264", "zipcode": "90064", "occupation": "writer"}
{"gender": "M", "age": "26", "user id": "265", "zipcode": "84601", "occupation": "executive"}
{"gender": "F", "age": "62", "user id": "266", "zipcode": "78756", "occupation": "administrator"}
{"gender": "M", "age": "23", "user id": "267", "zipcode": "83716", "occupation": "engineer"}
{"gender": "M", "age": "24", "user id": "268", "zipcode": "19422", "occupation": "engineer"}
{"gender": "F", "age": "31", "user id": "269", "zipcode": "43201", "occupation": "librarian"}
{"gender": "F", "age": "18", "user id": "270", "zipcode": "63119", "occupation": "student"}
{"gender": "M", "age": "51", "user id": "271", "zipcode": "22932", "occupation": "engineer"}
{"gender": "M", "age": "33", "user id": "272", "zipcode": "53706", "occupation": "scientist"}
{"gender": "F", "age": "50", "user id": "273", "zipcode": "10016", "occupation": "other"}
{"gender": "F", "age": "20", "user id": "274", "zipcode": "55414", "occupation": "student"}
{"gender": "M", "age": "38", "user id": "275", "zipcode": "92064", "occupation": "engineer"}
{"gender": "M", "age": "21", "user id": "276", "zipcode": "95064", "occupation": "student"}
{"gender": "F", "age": "35", "user id": "277", "zipcode": "55406", "occupation": "administrator"}
{"gender": "F", "age": "37", "user id": "278", "zipcode": "30033", "occupation": "librarian"}
{"gender": "M", "age": "33", "user id": "279", "zipcode": "85251", "occupation": "programmer"}
{"gender": "F", "age": "30", "user id": "280", "zipcode": "22903", "occupation": "librarian"}
{"gender": "F", "age": "15", "user id": "281", "zipcode": "06059", "occupation": "student"}
{"gender": "M", "age": "22", "user id": "282", "zipcode": "20057", "occupation": "administrator"}
{"gender": "M", "age": "28", "user id": "283", "zipcode": "55305", "occupation": "programmer"}
{"gender": "M", "age": "40", "user id": "284", "zipcode": "92629", "occupation": "executive"}
{"gender": "M", "age": "25", "user id": "285", "zipcode": "53713", "occupation": "programmer"}
{"gender": "M", "age": "27", "user id": "286", "zipcode": "15217", "occupation": "student"}
{"gender": "M", "age": "21", "user id": "287", "zipcode": "31211", "occupation": "salesman"}
{"gender": "M", "age": "34", "user id": "288", "zipcode": "23226", "occupation": "marketing"}
{"gender": "M", "age": "11", "user id": "289", "zipcode": "94619", "occupation": "none"}
{"gender": "M", "age": "40", "user id": "290", "zipcode": "93550", "occupation": "engineer"}
{"gender": "M", "age": "19", "user id": "291", "zipcode": "44106", "occupation": "student"}
{"gender": "F", "age": "35", "user id": "292", "zipcode": "94703", "occupation": "programmer"}
{"gender": "M", "age": "24", "user id": "293", "zipcode": "60804", "occupation": "writer"}
{"gender": "M", "age": "34", "user id": "294", "zipcode": "92110", "occupation": "technician"}
{"gender": "M", "age": "31", "user id": "295", "zipcode": "50325", "occupation": "educator"}
{"gender": "F", "age": "43", "user id": "296", "zipcode": "16803", "occupation": "administrator"}
{"gender": "F", "age": "29", "user id": "297", "zipcode": "98103", "occupation": "educator"}
{"gender": "M", "age": "44", "user id": "298", "zipcode": "01581", "occupation": "executive"}
{"gender": "M", "age": "29", "user id": "299", "zipcode": "63108", "occupation": "doctor"}
{"gender": "F", "age": "26", "user id": "300", "zipcode": "55106", "occupation": "programmer"}
{"gender": "M", "age": "24", "user id": "301", "zipcode": "55439", "occupation": "student"}
{"gender": "M", "age": "42", "user id": "302", "zipcode": "77904", "occupation": "educator"}
{"gender": "M", "age": "19", "user id": "303", "zipcode": "14853", "occupation": "student"}
{"gender": "F", "age": "22", "user id": "304", "zipcode": "71701", "occupation": "student"}
{"gender": "M", "age": "23", "user id": "305", "zipcode": "94086", "occupation": "programmer"}
{"gender": "M", "age": "45", "user id": "306", "zipcode": "73132", "occupation": "other"}
{"gender": "M", "age": "25", "user id": "307", "zipcode": "55454", "occupation": "student"}
{"gender": "M", "age": "60", "user id": "308", "zipcode": "95076", "occupation": "retired"}
{"gender": "M", "age": "40", "user id": "309", "zipcode": "70802", "occupation": "scientist"}
{"gender": "M", "age": "37", "user id": "310", "zipcode": "91711", "occupation": "educator"}
{"gender": "M", "age": "32", "user id": "311", "zipcode": "73071", "occupation": "technician"}
{"gender": "M", "age": "48", "user id": "312", "zipcode": "02110", "occupation": "other"}
{"gender": "M", "age": "41", "user id": "313", "zipcode": "60035", "occupation": "marketing"}
{"gender": "F", "age": "20", "user id": "314", "zipcode": "08043", "occupation": "student"}
{"gender": "M", "age": "31", "user id": "315", "zipcode": "18301", "occupation": "educator"}
{"gender": "F", "age": "43", "user id": "316", "zipcode": "77009", "occupation": "other"}
{"gender": "M", "age": "22", "user id": "317", "zipcode": "13210", "occupation": "administrator"}
{"gender": "M", "age": "65", "user id": "318", "zipcode": "06518", "occupation": "retired"}
{"gender": "M", "age": "38", "user id": "319", "zipcode": "22030", "occupation": "programmer"}
{"gender": "M", "age": "19", "user id": "320", "zipcode": "24060", "occupation": "student"}
{"gender": "F", "age": "49", "user id": "321", "zipcode": "55413", "occupation": "educator"}
{"gender": "M", "age": "20", "user id": "322", "zipcode": "50613", "occupation": "student"}
{"gender": "M", "age": "21", "user id": "323", "zipcode": "19149", "occupation": "student"}
{"gender": "F", "age": "21", "user id": "324", "zipcode": "02176", "occupation": "student"}
{"gender": "M", "age": "48", "user id": "325", "zipcode": "02139", "occupation": "technician"}
{"gender": "M", "age": "41", "user id": "326", "zipcode": "15235", "occupation": "administrator"}
{"gender": "M", "age": "22", "user id": "327", "zipcode": "11101", "occupation": "student"}
{"gender": "M", "age": "51", "user id": "328", "zipcode": "06779", "occupation": "administrator"}
{"gender": "M", "age": "48", "user id": "329", "zipcode": "01720", "occupation": "educator"}
{"gender": "F", "age": "35", "user id": "330", "zipcode": "33884", "occupation": "educator"}
{"gender": "M", "age": "33", "user id": "331", "zipcode": "91344", "occupation": "entertainment"}
{"gender": "M", "age": "20", "user id": "332", "zipcode": "40504", "occupation": "student"}
{"gender": "M", "age": "47", "user id": "333", "zipcode": "V0R2M", "occupation": "other"}
{"gender": "M", "age": "32", "user id": "334", "zipcode": "30002", "occupation": "librarian"}
{"gender": "M", "age": "45", "user id": "335", "zipcode": "33775", "occupation": "executive"}
{"gender": "M", "age": "23", "user id": "336", "zipcode": "42101", "occupation": "salesman"}
{"gender": "M", "age": "37", "user id": "337", "zipcode": "10522", "occupation": "scientist"}
{"gender": "F", "age": "39", "user id": "338", "zipcode": "59717", "occupation": "librarian"}
{"gender": "M", "age": "35", "user id": "339", "zipcode": "37901", "occupation": "lawyer"}
{"gender": "M", "age": "46", "user id": "340", "zipcode": "80123", "occupation": "engineer"}
{"gender": "F", "age": "17", "user id": "341", "zipcode": "44405", "occupation": "student"}
{"gender": "F", "age": "25", "user id": "342", "zipcode": "98006", "occupation": "other"}
{"gender": "M", "age": "43", "user id": "343", "zipcode": "30093", "occupation": "engineer"}
{"gender": "F", "age": "30", "user id": "344", "zipcode": "94117", "occupation": "librarian"}
{"gender": "F", "age": "28", "user id": "345", "zipcode": "94143", "occupation": "librarian"}
{"gender": "M", "age": "34", "user id": "346", "zipcode": "76059", "occupation": "other"}
{"gender": "M", "age": "18", "user id": "347", "zipcode": "90210", "occupation": "student"}
{"gender": "F", "age": "24", "user id": "348", "zipcode": "45660", "occupation": "student"}
{"gender": "M", "age": "68", "user id": "349", "zipcode": "61455", "occupation": "retired"}
{"gender": "M", "age": "32", "user id": "350", "zipcode": "97301", "occupation": "student"}
{"gender": "M", "age": "61", "user id": "351", "zipcode": "49938", "occupation": "educator"}
{"gender": "F", "age": "37", "user id": "352", "zipcode": "55105", "occupation": "programmer"}
{"gender": "M", "age": "25", "user id": "353", "zipcode": "28480", "occupation": "scientist"}
{"gender": "F", "age": "29", "user id": "354", "zipcode": "48197", "occupation": "librarian"}
{"gender": "M", "age": "25", "user id": "355", "zipcode": "60135", "occupation": "student"}
{"gender": "F", "age": "32", "user id": "356", "zipcode": "92688", "occupation": "homemaker"}
{"gender": "M", "age": "26", "user id": "357", "zipcode": "98133", "occupation": "executive"}
{"gender": "M", "age": "40", "user id": "358", "zipcode": "10022", "occupation": "educator"}
{"gender": "M", "age": "22", "user id": "359", "zipcode": "61801", "occupation": "student"}
{"gender": "M", "age": "51", "user id": "360", "zipcode": "98027", "occupation": "other"}
{"gender": "M", "age": "22", "user id": "361", "zipcode": "44074", "occupation": "student"}
{"gender": "F", "age": "35", "user id": "362", "zipcode": "85233", "occupation": "homemaker"}
{"gender": "M", "age": "20", "user id": "363", "zipcode": "87501", "occupation": "student"}
{"gender": "M", "age": "63", "user id": "364", "zipcode": "01810", "occupation": "engineer"}
{"gender": "M", "age": "29", "user id": "365", "zipcode": "20009", "occupation": "lawyer"}
{"gender": "F", "age": "20", "user id": "366", "zipcode": "50670", "occupation": "student"}
{"gender": "M", "age": "17", "user id": "367", "zipcode": "37411", "occupation": "student"}
{"gender": "M", "age": "18", "user id": "368", "zipcode": "92113", "occupation": "student"}
{"gender": "M", "age": "24", "user id": "369", "zipcode": "91335", "occupation": "student"}
{"gender": "M", "age": "52", "user id": "370", "zipcode": "08534", "occupation": "writer"}
{"gender": "M", "age": "36", "user id": "371", "zipcode": "99206", "occupation": "engineer"}
{"gender": "F", "age": "25", "user id": "372", "zipcode": "66046", "occupation": "student"}
{"gender": "F", "age": "24", "user id": "373", "zipcode": "55116", "occupation": "other"}
{"gender": "M", "age": "36", "user id": "374", "zipcode": "78746", "occupation": "executive"}
{"gender": "M", "age": "17", "user id": "375", "zipcode": "37777", "occupation": "entertainment"}
{"gender": "F", "age": "28", "user id": "376", "zipcode": "10010", "occupation": "other"}
{"gender": "M", "age": "22", "user id": "377", "zipcode": "18015", "occupation": "student"}
{"gender": "M", "age": "35", "user id": "378", "zipcode": "02859", "occupation": "student"}
{"gender": "M", "age": "44", "user id": "379", "zipcode": "98117", "occupation": "programmer"}
{"gender": "M", "age": "32", "user id": "380", "zipcode": "55117", "occupation": "engineer"}
{"gender": "M", "age": "33", "user id": "381", "zipcode": "94608", "occupation": "artist"}
{"gender": "M", "age": "45", "user id": "382", "zipcode": "01824", "occupation": "engineer"}
{"gender": "M", "age": "42", "user id": "383", "zipcode": "75204", "occupation": "administrator"}
{"gender": "M", "age": "52", "user id": "384", "zipcode": "45218", "occupation": "programmer"}
{"gender": "M", "age": "36", "user id": "385", "zipcode": "10003", "occupation": "writer"}
{"gender": "M", "age": "36", "user id": "386", "zipcode": "43221", "occupation": "salesman"}
{"gender": "M", "age": "33", "user id": "387", "zipcode": "37412", "occupation": "entertainment"}
{"gender": "M", "age": "31", "user id": "388", "zipcode": "36106", "occupation": "other"}
{"gender": "F", "age": "44", "user id": "389", "zipcode": "83702", "occupation": "writer"}
{"gender": "F", "age": "42", "user id": "390", "zipcode": "85016", "occupation": "writer"}
{"gender": "M", "age": "23", "user id": "391", "zipcode": "84604", "occupation": "student"}
{"gender": "M", "age": "52", "user id": "392", "zipcode": "59801", "occupation": "writer"}
{"gender": "M", "age": "19", "user id": "393", "zipcode": "83686", "occupation": "student"}
{"gender": "M", "age": "25", "user id": "394", "zipcode": "96819", "occupation": "administrator"}
{"gender": "M", "age": "43", "user id": "395", "zipcode": "44092", "occupation": "other"}
{"gender": "M", "age": "57", "user id": "396", "zipcode": "94551", "occupation": "engineer"}
{"gender": "M", "age": "17", "user id": "397", "zipcode": "27514", "occupation": "student"}
{"gender": "M", "age": "40", "user id": "398", "zipcode": "60008", "occupation": "other"}
{"gender": "M", "age": "25", "user id": "399", "zipcode": "92374", "occupation": "other"}
{"gender": "F", "age": "33", "user id": "400", "zipcode": "78213", "occupation": "administrator"}
{"gender": "F", "age": "46", "user id": "401", "zipcode": "84107", "occupation": "healthcare"}
{"gender": "M", "age": "30", "user id": "402", "zipcode": "95129", "occupation": "engineer"}
{"gender": "M", "age": "37", "user id": "403", "zipcode": "06811", "occupation": "other"}
{"gender": "F", "age": "29", "user id": "404", "zipcode": "55108", "occupation": "programmer"}
{"gender": "F", "age": "22", "user id": "405", "zipcode": "10019", "occupation": "healthcare"}
{"gender": "M", "age": "52", "user id": "406", "zipcode": "93109", "occupation": "educator"}
{"gender": "M", "age": "29", "user id": "407", "zipcode": "03261", "occupation": "engineer"}
{"gender": "M", "age": "23", "user id": "408", "zipcode": "61755", "occupation": "student"}
{"gender": "M", "age": "48", "user id": "409", "zipcode": "98225", "occupation": "administrator"}
{"gender": "F", "age": "30", "user id": "410", "zipcode": "94025", "occupation": "artist"}
{"gender": "M", "age": "34", "user id": "411", "zipcode": "44691", "occupation": "educator"}
{"gender": "M", "age": "25", "user id": "412", "zipcode": "15222", "occupation": "educator"}
{"gender": "M", "age": "55", "user id": "413", "zipcode": "78212", "occupation": "educator"}
{"gender": "M", "age": "24", "user id": "414", "zipcode": "38115", "occupation": "programmer"}
{"gender": "M", "age": "39", "user id": "415", "zipcode": "85711", "occupation": "educator"}
{"gender": "F", "age": "20", "user id": "416", "zipcode": "92626", "occupation": "student"}
{"gender": "F", "age": "27", "user id": "417", "zipcode": "48103", "occupation": "other"}
{"gender": "F", "age": "55", "user id": "418", "zipcode": "21206", "occupation": "none"}
{"gender": "M", "age": "37", "user id": "419", "zipcode": "43215", "occupation": "lawyer"}
{"gender": "M", "age": "53", "user id": "420", "zipcode": "02140", "occupation": "educator"}
{"gender": "F", "age": "38", "user id": "421", "zipcode": "55105", "occupation": "programmer"}
{"gender": "M", "age": "26", "user id": "422", "zipcode": "94533", "occupation": "entertainment"}
{"gender": "M", "age": "64", "user id": "423", "zipcode": "91606", "occupation": "other"}
{"gender": "F", "age": "36", "user id": "424", "zipcode": "55422", "occupation": "marketing"}
{"gender": "M", "age": "19", "user id": "425", "zipcode": "58644", "occupation": "student"}
{"gender": "M", "age": "55", "user id": "426", "zipcode": "01602", "occupation": "educator"}
{"gender": "M", "age": "51", "user id": "427", "zipcode": "85258", "occupation": "doctor"}
{"gender": "M", "age": "28", "user id": "428", "zipcode": "55414", "occupation": "student"}
{"gender": "M", "age": "27", "user id": "429", "zipcode": "29205", "occupation": "student"}
{"gender": "M", "age": "38", "user id": "430", "zipcode": "98199", "occupation": "scientist"}
{"gender": "M", "age": "24", "user id": "431", "zipcode": "92629", "occupation": "marketing"}
{"gender": "M", "age": "22", "user id": "432", "zipcode": "50311", "occupation": "entertainment"}
{"gender": "M", "age": "27", "user id": "433", "zipcode": "11211", "occupation": "artist"}
{"gender": "F", "age": "16", "user id": "434", "zipcode": "49705", "occupation": "student"}
{"gender": "M", "age": "24", "user id": "435", "zipcode": "60007", "occupation": "engineer"}
{"gender": "F", "age": "30", "user id": "436", "zipcode": "17345", "occupation": "administrator"}
{"gender": "F", "age": "27", "user id": "437", "zipcode": "20009", "occupation": "other"}
{"gender": "F", "age": "51", "user id": "438", "zipcode": "43204", "occupation": "administrator"}
{"gender": "F", "age": "23", "user id": "439", "zipcode": "20817", "occupation": "administrator"}
{"gender": "M", "age": "30", "user id": "440", "zipcode": "48076", "occupation": "other"}
{"gender": "M", "age": "50", "user id": "441", "zipcode": "55013", "occupation": "technician"}
{"gender": "M", "age": "22", "user id": "442", "zipcode": "85282", "occupation": "student"}
{"gender": "M", "age": "35", "user id": "443", "zipcode": "33308", "occupation": "salesman"}
{"gender": "F", "age": "51", "user id": "444", "zipcode": "53202", "occupation": "lawyer"}
{"gender": "M", "age": "21", "user id": "445", "zipcode": "92653", "occupation": "writer"}
{"gender": "M", "age": "57", "user id": "446", "zipcode": "60201", "occupation": "educator"}
{"gender": "M", "age": "30", "user id": "447", "zipcode": "55113", "occupation": "administrator"}
{"gender": "M", "age": "23", "user id": "448", "zipcode": "10021", "occupation": "entertainment"}
{"gender": "M", "age": "23", "user id": "449", "zipcode": "55021", "occupation": "librarian"}
{"gender": "F", "age": "35", "user id": "450", "zipcode": "11758", "occupation": "educator"}
{"gender": "M", "age": "16", "user id": "451", "zipcode": "48446", "occupation": "student"}
{"gender": "M", "age": "35", "user id": "452", "zipcode": "28018", "occupation": "administrator"}
{"gender": "M", "age": "18", "user id": "453", "zipcode": "06333", "occupation": "student"}
{"gender": "M", "age": "57", "user id": "454", "zipcode": "97330", "occupation": "other"}
{"gender": "M", "age": "48", "user id": "455", "zipcode": "83709", "occupation": "administrator"}
{"gender": "M", "age": "24", "user id": "456", "zipcode": "31820", "occupation": "technician"}
{"gender": "F", "age": "33", "user id": "457", "zipcode": "30011", "occupation": "salesman"}
{"gender": "M", "age": "47", "user id": "458", "zipcode": "Y1A6B", "occupation": "technician"}
{"gender": "M", "age": "22", "user id": "459", "zipcode": "29201", "occupation": "student"}
{"gender": "F", "age": "44", "user id": "460", "zipcode": "60630", "occupation": "other"}
{"gender": "M", "age": "15", "user id": "461", "zipcode": "98102", "occupation": "student"}
{"gender": "F", "age": "19", "user id": "462", "zipcode": "02918", "occupation": "student"}
{"gender": "F", "age": "48", "user id": "463", "zipcode": "75218", "occupation": "healthcare"}
{"gender": "M", "age": "60", "user id": "464", "zipcode": "94583", "occupation": "writer"}
{"gender": "M", "age": "32", "user id": "465", "zipcode": "05001", "occupation": "other"}
{"gender": "M", "age": "22", "user id": "466", "zipcode": "90804", "occupation": "student"}
{"gender": "M", "age": "29", "user id": "467", "zipcode": "91201", "occupation": "engineer"}
{"gender": "M", "age": "28", "user id": "468", "zipcode": "02341", "occupation": "engineer"}
{"gender": "M", "age": "60", "user id": "469", "zipcode": "78628", "occupation": "educator"}
{"gender": "M", "age": "24", "user id": "470", "zipcode": "10021", "occupation": "programmer"}
{"gender": "M", "age": "10", "user id": "471", "zipcode": "77459", "occupation": "student"}
{"gender": "M", "age": "24", "user id": "472", "zipcode": "87544", "occupation": "student"}
{"gender": "M", "age": "29", "user id": "473", "zipcode": "94708", "occupation": "student"}
{"gender": "M", "age": "51", "user id": "474", "zipcode": "93711", "occupation": "executive"}
{"gender": "M", "age": "30", "user id": "475", "zipcode": "75230", "occupation": "programmer"}
{"gender": "M", "age": "28", "user id": "476", "zipcode": "60440", "occupation": "student"}
{"gender": "F", "age": "23", "user id": "477", "zipcode": "02125", "occupation": "student"}
{"gender": "M", "age": "29", "user id": "478", "zipcode": "10019", "occupation": "other"}
{"gender": "M", "age": "30", "user id": "479", "zipcode": "55409", "occupation": "educator"}
{"gender": "M", "age": "57", "user id": "480", "zipcode": "98257", "occupation": "retired"}
{"gender": "M", "age": "73", "user id": "481", "zipcode": "37771", "occupation": "retired"}
{"gender": "F", "age": "18", "user id": "482", "zipcode": "40256", "occupation": "student"}
{"gender": "M", "age": "29", "user id": "483", "zipcode": "43212", "occupation": "scientist"}
{"gender": "M", "age": "27", "user id": "484", "zipcode": "21208", "occupation": "student"}
{"gender": "F", "age": "44", "user id": "485", "zipcode": "95821", "occupation": "educator"}
{"gender": "M", "age": "39", "user id": "486", "zipcode": "93101", "occupation": "educator"}
{"gender": "M", "age": "22", "user id": "487", "zipcode": "92121", "occupation": "engineer"}
{"gender": "M", "age": "48", "user id": "488", "zipcode": "21012", "occupation": "technician"}
{"gender": "M", "age": "55", "user id": "489", "zipcode": "45218", "occupation": "other"}
{"gender": "F", "age": "29", "user id": "490", "zipcode": "V5A2B", "occupation": "artist"}
{"gender": "F", "age": "43", "user id": "491", "zipcode": "53711", "occupation": "writer"}
{"gender": "M", "age": "57", "user id": "492", "zipcode": "94618", "occupation": "educator"}
{"gender": "M", "age": "22", "user id": "493", "zipcode": "60090", "occupation": "engineer"}
{"gender": "F", "age": "38", "user id": "494", "zipcode": "49428", "occupation": "administrator"}
{"gender": "M", "age": "29", "user id": "495", "zipcode": "03052", "occupation": "engineer"}
{"gender": "F", "age": "21", "user id": "496", "zipcode": "55414", "occupation": "student"}
{"gender": "M", "age": "20", "user id": "497", "zipcode": "50112", "occupation": "student"}
{"gender": "M", "age": "26", "user id": "498", "zipcode": "55408", "occupation": "writer"}
{"gender": "M", "age": "42", "user id": "499", "zipcode": "75006", "occupation": "programmer"}
{"gender": "M", "age": "28", "user id": "500", "zipcode": "94305", "occupation": "administrator"}
{"gender": "M", "age": "22", "user id": "501", "zipcode": "10025", "occupation": "student"}
{"gender": "M", "age": "22", "user id": "502", "zipcode": "23092", "occupation": "student"}
{"gender": "F", "age": "50", "user id": "503", "zipcode": "27514", "occupation": "writer"}
{"gender": "F", "age": "40", "user id": "504", "zipcode": "92115", "occupation": "writer"}
{"gender": "F", "age": "27", "user id": "505", "zipcode": "20657", "occupation": "other"}
{"gender": "M", "age": "46", "user id": "506", "zipcode": "03869", "occupation": "programmer"}
{"gender": "F", "age": "18", "user id": "507", "zipcode": "28450", "occupation": "writer"}
{"gender": "M", "age": "27", "user id": "508", "zipcode": "19382", "occupation": "marketing"}
{"gender": "M", "age": "23", "user id": "509", "zipcode": "10011", "occupation": "administrator"}
{"gender": "M", "age": "34", "user id": "510", "zipcode": "98038", "occupation": "other"}
{"gender": "M", "age": "22", "user id": "511", "zipcode": "21250", "occupation": "student"}
{"gender": "M", "age": "29", "user id": "512", "zipcode": "20090", "occupation": "other"}
{"gender": "M", "age": "43", "user id": "513", "zipcode": "26241", "occupation": "administrator"}
{"gender": "M", "age": "27", "user id": "514", "zipcode": "20707", "occupation": "programmer"}
{"gender": "M", "age": "53", "user id": "515", "zipcode": "49508", "occupation": "marketing"}
{"gender": "F", "age": "53", "user id": "516", "zipcode": "10021", "occupation": "librarian"}
{"gender": "M", "age": "24", "user id": "517", "zipcode": "55454", "occupation": "student"}
{"gender": "F", "age": "49", "user id": "518", "zipcode": "99709", "occupation": "writer"}
{"gender": "M", "age": "22", "user id": "519", "zipcode": "55320", "occupation": "other"}
{"gender": "M", "age": "62", "user id": "520", "zipcode": "12603", "occupation": "healthcare"}
{"gender": "M", "age": "19", "user id": "521", "zipcode": "02146", "occupation": "student"}
{"gender": "M", "age": "36", "user id": "522", "zipcode": "55443", "occupation": "engineer"}
{"gender": "F", "age": "50", "user id": "523", "zipcode": "04102", "occupation": "administrator"}
{"gender": "M", "age": "56", "user id": "524", "zipcode": "02159", "occupation": "educator"}
{"gender": "F", "age": "27", "user id": "525", "zipcode": "19711", "occupation": "administrator"}
{"gender": "M", "age": "30", "user id": "526", "zipcode": "97124", "occupation": "marketing"}
{"gender": "M", "age": "33", "user id": "527", "zipcode": "12180", "occupation": "librarian"}
{"gender": "M", "age": "18", "user id": "528", "zipcode": "55104", "occupation": "student"}
{"gender": "F", "age": "47", "user id": "529", "zipcode": "44224", "occupation": "administrator"}
{"gender": "M", "age": "29", "user id": "530", "zipcode": "94040", "occupation": "engineer"}
{"gender": "F", "age": "30", "user id": "531", "zipcode": "97408", "occupation": "salesman"}
{"gender": "M", "age": "20", "user id": "532", "zipcode": "92705", "occupation": "student"}
{"gender": "M", "age": "43", "user id": "533", "zipcode": "02324", "occupation": "librarian"}
{"gender": "M", "age": "20", "user id": "534", "zipcode": "05464", "occupation": "student"}
{"gender": "F", "age": "45", "user id": "535", "zipcode": "80302", "occupation": "educator"}
{"gender": "M", "age": "38", "user id": "536", "zipcode": "30078", "occupation": "engineer"}
{"gender": "M", "age": "36", "user id": "537", "zipcode": "22902", "occupation": "engineer"}
{"gender": "M", "age": "31", "user id": "538", "zipcode": "21010", "occupation": "scientist"}
{"gender": "F", "age": "53", "user id": "539", "zipcode": "80303", "occupation": "administrator"}
{"gender": "M", "age": "28", "user id": "540", "zipcode": "91201", "occupation": "engineer"}
{"gender": "F", "age": "19", "user id": "541", "zipcode": "84302", "occupation": "student"}
{"gender": "M", "age": "21", "user id": "542", "zipcode": "60515", "occupation": "student"}
{"gender": "M", "age": "33", "user id": "543", "zipcode": "95123", "occupation": "scientist"}
{"gender": "F", "age": "44", "user id": "544", "zipcode": "29464", "occupation": "other"}
{"gender": "M", "age": "27", "user id": "545", "zipcode": "08052", "occupation": "technician"}
{"gender": "M", "age": "36", "user id": "546", "zipcode": "22911", "occupation": "executive"}
{"gender": "M", "age": "50", "user id": "547", "zipcode": "14534", "occupation": "educator"}
{"gender": "M", "age": "51", "user id": "548", "zipcode": "95468", "occupation": "writer"}
{"gender": "M", "age": "42", "user id": "549", "zipcode": "45680", "occupation": "scientist"}
{"gender": "F", "age": "16", "user id": "550", "zipcode": "95453", "occupation": "student"}
{"gender": "M", "age": "25", "user id": "551", "zipcode": "55414", "occupation": "programmer"}
{"gender": "M", "age": "45", "user id": "552", "zipcode": "68147", "occupation": "other"}
{"gender": "M", "age": "58", "user id": "553", "zipcode": "62901", "occupation": "educator"}
{"gender": "M", "age": "32", "user id": "554", "zipcode": "62901", "occupation": "scientist"}
{"gender": "F", "age": "29", "user id": "555", "zipcode": "23227", "occupation": "educator"}
{"gender": "F", "age": "35", "user id": "556", "zipcode": "30606", "occupation": "educator"}
{"gender": "F", "age": "30", "user id": "557", "zipcode": "11217", "occupation": "writer"}
{"gender": "F", "age": "56", "user id": "558", "zipcode": "63132", "occupation": "writer"}
{"gender": "M", "age": "69", "user id": "559", "zipcode": "10022", "occupation": "executive"}
{"gender": "M", "age": "32", "user id": "560", "zipcode": "10003", "occupation": "student"}
{"gender": "M", "age": "23", "user id": "561", "zipcode": "60005", "occupation": "engineer"}
{"gender": "F", "age": "54", "user id": "562", "zipcode": "20879", "occupation": "administrator"}
{"gender": "F", "age": "39", "user id": "563", "zipcode": "32707", "occupation": "librarian"}
{"gender": "M", "age": "65", "user id": "564", "zipcode": "94591", "occupation": "retired"}
{"gender": "M", "age": "40", "user id": "565", "zipcode": "55422", "occupation": "student"}
{"gender": "M", "age": "20", "user id": "566", "zipcode": "14627", "occupation": "student"}
{"gender": "M", "age": "24", "user id": "567", "zipcode": "10003", "occupation": "entertainment"}
{"gender": "M", "age": "39", "user id": "568", "zipcode": "01915", "occupation": "educator"}
{"gender": "M", "age": "34", "user id": "569", "zipcode": "91903", "occupation": "educator"}
{"gender": "M", "age": "26", "user id": "570", "zipcode": "14627", "occupation": "educator"}
{"gender": "M", "age": "34", "user id": "571", "zipcode": "01945", "occupation": "artist"}
{"gender": "M", "age": "51", "user id": "572", "zipcode": "20003", "occupation": "educator"}
{"gender": "M", "age": "68", "user id": "573", "zipcode": "48911", "occupation": "retired"}
{"gender": "M", "age": "56", "user id": "574", "zipcode": "53188", "occupation": "educator"}
{"gender": "M", "age": "33", "user id": "575", "zipcode": "46032", "occupation": "marketing"}
{"gender": "M", "age": "48", "user id": "576", "zipcode": "98281", "occupation": "executive"}
{"gender": "F", "age": "36", "user id": "577", "zipcode": "77845", "occupation": "student"}
{"gender": "M", "age": "31", "user id": "578", "zipcode": "M7A1A", "occupation": "administrator"}
{"gender": "M", "age": "32", "user id": "579", "zipcode": "48103", "occupation": "educator"}
{"gender": "M", "age": "16", "user id": "580", "zipcode": "17961", "occupation": "student"}
{"gender": "M", "age": "37", "user id": "581", "zipcode": "94131", "occupation": "other"}
{"gender": "M", "age": "17", "user id": "582", "zipcode": "93003", "occupation": "student"}
{"gender": "M", "age": "44", "user id": "583", "zipcode": "29631", "occupation": "engineer"}
{"gender": "M", "age": "25", "user id": "584", "zipcode": "27511", "occupation": "student"}
{"gender": "M", "age": "69", "user id": "585", "zipcode": "98501", "occupation": "librarian"}
{"gender": "M", "age": "20", "user id": "586", "zipcode": "79508", "occupation": "student"}
{"gender": "M", "age": "26", "user id": "587", "zipcode": "14216", "occupation": "other"}
{"gender": "F", "age": "18", "user id": "588", "zipcode": "93063", "occupation": "student"}
{"gender": "M", "age": "21", "user id": "589", "zipcode": "90034", "occupation": "lawyer"}
{"gender": "M", "age": "50", "user id": "590", "zipcode": "82435", "occupation": "educator"}
{"gender": "F", "age": "57", "user id": "591", "zipcode": "92093", "occupation": "librarian"}
{"gender": "M", "age": "18", "user id": "592", "zipcode": "97520", "occupation": "student"}
{"gender": "F", "age": "31", "user id": "593", "zipcode": "68767", "occupation": "educator"}
{"gender": "M", "age": "46", "user id": "594", "zipcode": "M4J2K", "occupation": "educator"}
{"gender": "M", "age": "25", "user id": "595", "zipcode": "31909", "occupation": "programmer"}
{"gender": "M", "age": "20", "user id": "596", "zipcode": "77073", "occupation": "artist"}
{"gender": "M", "age": "23", "user id": "597", "zipcode": "84116", "occupation": "other"}
{"gender": "F", "age": "40", "user id": "598", "zipcode": "43085", "occupation": "marketing"}
{"gender": "F", "age": "22", "user id": "599", "zipcode": "R3T5K", "occupation": "student"}
{"gender": "M", "age": "34", "user id": "600", "zipcode": "02320", "occupation": "programmer"}
{"gender": "F", "age": "19", "user id": "601", "zipcode": "99687", "occupation": "artist"}
{"gender": "F", "age": "47", "user id": "602", "zipcode": "34656", "occupation": "other"}
{"gender": "M", "age": "21", "user id": "603", "zipcode": "47905", "occupation": "programmer"}
{"gender": "M", "age": "39", "user id": "604", "zipcode": "11787", "occupation": "educator"}
{"gender": "M", "age": "33", "user id": "605", "zipcode": "33716", "occupation": "engineer"}
{"gender": "M", "age": "28", "user id": "606", "zipcode": "63044", "occupation": "programmer"}
{"gender": "F", "age": "49", "user id": "607", "zipcode": "02154", "occupation": "healthcare"}
{"gender": "M", "age": "22", "user id": "608", "zipcode": "10003", "occupation": "other"}
{"gender": "F", "age": "13", "user id": "609", "zipcode": "55106", "occupation": "student"}
{"gender": "M", "age": "22", "user id": "610", "zipcode": "21227", "occupation": "student"}
{"gender": "M", "age": "46", "user id": "611", "zipcode": "77008", "occupation": "librarian"}
{"gender": "M", "age": "36", "user id": "612", "zipcode": "79070", "occupation": "educator"}
{"gender": "F", "age": "37", "user id": "613", "zipcode": "29678", "occupation": "marketing"}
{"gender": "M", "age": "54", "user id": "614", "zipcode": "80227", "occupation": "educator"}
{"gender": "M", "age": "38", "user id": "615", "zipcode": "27705", "occupation": "educator"}
{"gender": "M", "age": "55", "user id": "616", "zipcode": "50613", "occupation": "scientist"}
{"gender": "F", "age": "27", "user id": "617", "zipcode": "11201", "occupation": "writer"}
{"gender": "F", "age": "15", "user id": "618", "zipcode": "44212", "occupation": "student"}
{"gender": "M", "age": "17", "user id": "619", "zipcode": "44134", "occupation": "student"}
{"gender": "F", "age": "18", "user id": "620", "zipcode": "81648", "occupation": "writer"}
{"gender": "M", "age": "17", "user id": "621", "zipcode": "60402", "occupation": "student"}
{"gender": "M", "age": "25", "user id": "622", "zipcode": "14850", "occupation": "programmer"}
{"gender": "F", "age": "50", "user id": "623", "zipcode": "60187", "occupation": "educator"}
{"gender": "M", "age": "19", "user id": "624", "zipcode": "30067", "occupation": "student"}
{"gender": "M", "age": "27", "user id": "625", "zipcode": "20723", "occupation": "programmer"}
{"gender": "M", "age": "23", "user id": "626", "zipcode": "19807", "occupation": "scientist"}
{"gender": "M", "age": "24", "user id": "627", "zipcode": "08034", "occupation": "engineer"}
{"gender": "M", "age": "13", "user id": "628", "zipcode": "94306", "occupation": "none"}
{"gender": "F", "age": "46", "user id": "629", "zipcode": "44224", "occupation": "other"}
{"gender": "F", "age": "26", "user id": "630", "zipcode": "55408", "occupation": "healthcare"}
{"gender": "F", "age": "18", "user id": "631", "zipcode": "38866", "occupation": "student"}
{"gender": "M", "age": "18", "user id": "632", "zipcode": "55454", "occupation": "student"}
{"gender": "M", "age": "35", "user id": "633", "zipcode": "55414", "occupation": "programmer"}
{"gender": "M", "age": "39", "user id": "634", "zipcode": "T8H1N", "occupation": "engineer"}
{"gender": "M", "age": "22", "user id": "635", "zipcode": "23237", "occupation": "other"}
{"gender": "M", "age": "47", "user id": "636", "zipcode": "48043", "occupation": "educator"}
{"gender": "M", "age": "30", "user id": "637", "zipcode": "74101", "occupation": "other"}
{"gender": "M", "age": "45", "user id": "638", "zipcode": "01940", "occupation": "engineer"}
{"gender": "F", "age": "42", "user id": "639", "zipcode": "12065", "occupation": "librarian"}
{"gender": "M", "age": "20", "user id": "640", "zipcode": "61801", "occupation": "student"}
{"gender": "M", "age": "24", "user id": "641", "zipcode": "60626", "occupation": "student"}
{"gender": "F", "age": "18", "user id": "642", "zipcode": "95521", "occupation": "student"}
{"gender": "M", "age": "39", "user id": "643", "zipcode": "55122", "occupation": "scientist"}
{"gender": "M", "age": "51", "user id": "644", "zipcode": "63645", "occupation": "retired"}
{"gender": "M", "age": "27", "user id": "645", "zipcode": "53211", "occupation": "programmer"}
{"gender": "F", "age": "17", "user id": "646", "zipcode": "51250", "occupation": "student"}
{"gender": "M", "age": "40", "user id": "647", "zipcode": "45810", "occupation": "educator"}
{"gender": "M", "age": "43", "user id": "648", "zipcode": "91351", "occupation": "engineer"}
{"gender": "M", "age": "20", "user id": "649", "zipcode": "39762", "occupation": "student"}
{"gender": "M", "age": "42", "user id": "650", "zipcode": "83814", "occupation": "engineer"}
{"gender": "M", "age": "65", "user id": "651", "zipcode": "02903", "occupation": "retired"}
{"gender": "M", "age": "35", "user id": "652", "zipcode": "22911", "occupation": "other"}
{"gender": "M", "age": "31", "user id": "653", "zipcode": "55105", "occupation": "executive"}
{"gender": "F", "age": "27", "user id": "654", "zipcode": "78739", "occupation": "student"}
{"gender": "F", "age": "50", "user id": "655", "zipcode": "60657", "occupation": "healthcare"}
{"gender": "M", "age": "48", "user id": "656", "zipcode": "10314", "occupation": "educator"}
{"gender": "F", "age": "26", "user id": "657", "zipcode": "78704", "occupation": "none"}
{"gender": "M", "age": "33", "user id": "658", "zipcode": "92626", "occupation": "programmer"}
{"gender": "M", "age": "31", "user id": "659", "zipcode": "54248", "occupation": "educator"}
{"gender": "M", "age": "26", "user id": "660", "zipcode": "77380", "occupation": "student"}
{"gender": "M", "age": "28", "user id": "661", "zipcode": "98121", "occupation": "programmer"}
{"gender": "M", "age": "55", "user id": "662", "zipcode": "19102", "occupation": "librarian"}
{"gender": "M", "age": "26", "user id": "663", "zipcode": "19341", "occupation": "other"}
{"gender": "M", "age": "30", "user id": "664", "zipcode": "94115", "occupation": "engineer"}
{"gender": "M", "age": "25", "user id": "665", "zipcode": "55412", "occupation": "administrator"}
{"gender": "M", "age": "44", "user id": "666", "zipcode": "61820", "occupation": "administrator"}
{"gender": "M", "age": "35", "user id": "667", "zipcode": "01970", "occupation": "librarian"}
{"gender": "F", "age": "29", "user id": "668", "zipcode": "10016", "occupation": "writer"}
{"gender": "M", "age": "37", "user id": "669", "zipcode": "20009", "occupation": "other"}
{"gender": "M", "age": "30", "user id": "670", "zipcode": "21114", "occupation": "technician"}
{"gender": "M", "age": "21", "user id": "671", "zipcode": "91919", "occupation": "programmer"}
{"gender": "F", "age": "54", "user id": "672", "zipcode": "90095", "occupation": "administrator"}
{"gender": "M", "age": "51", "user id": "673", "zipcode": "22906", "occupation": "educator"}
{"gender": "F", "age": "13", "user id": "674", "zipcode": "55337", "occupation": "student"}
{"gender": "M", "age": "34", "user id": "675", "zipcode": "28814", "occupation": "other"}
{"gender": "M", "age": "30", "user id": "676", "zipcode": "32712", "occupation": "programmer"}
{"gender": "M", "age": "20", "user id": "677", "zipcode": "99835", "occupation": "other"}
{"gender": "M", "age": "50", "user id": "678", "zipcode": "61462", "occupation": "educator"}
{"gender": "F", "age": "20", "user id": "679", "zipcode": "54302", "occupation": "student"}
{"gender": "M", "age": "33", "user id": "680", "zipcode": "90405", "occupation": "lawyer"}
{"gender": "F", "age": "44", "user id": "681", "zipcode": "97208", "occupation": "marketing"}
{"gender": "M", "age": "23", "user id": "682", "zipcode": "55128", "occupation": "programmer"}
{"gender": "M", "age": "42", "user id": "683", "zipcode": "23509", "occupation": "librarian"}
{"gender": "M", "age": "28", "user id": "684", "zipcode": "55414", "occupation": "student"}
{"gender": "F", "age": "32", "user id": "685", "zipcode": "55409", "occupation": "librarian"}
{"gender": "M", "age": "32", "user id": "686", "zipcode": "26506", "occupation": "educator"}
{"gender": "F", "age": "31", "user id": "687", "zipcode": "27713", "occupation": "healthcare"}
{"gender": "F", "age": "37", "user id": "688", "zipcode": "60476", "occupation": "administrator"}
{"gender": "M", "age": "25", "user id": "689", "zipcode": "45439", "occupation": "other"}
{"gender": "M", "age": "35", "user id": "690", "zipcode": "63304", "occupation": "salesman"}
{"gender": "M", "age": "34", "user id": "691", "zipcode": "60089", "occupation": "educator"}
{"gender": "M", "age": "34", "user id": "692", "zipcode": "18053", "occupation": "engineer"}
{"gender": "F", "age": "43", "user id": "693", "zipcode": "85210", "occupation": "healthcare"}
{"gender": "M", "age": "60", "user id": "694", "zipcode": "06365", "occupation": "programmer"}
{"gender": "M", "age": "26", "user id": "695", "zipcode": "38115", "occupation": "writer"}
{"gender": "M", "age": "55", "user id": "696", "zipcode": "94920", "occupation": "other"}
{"gender": "M", "age": "25", "user id": "697", "zipcode": "77042", "occupation": "other"}
{"gender": "F", "age": "28", "user id": "698", "zipcode": "06906", "occupation": "programmer"}
{"gender": "M", "age": "44", "user id": "699", "zipcode": "96754", "occupation": "other"}
{"gender": "M", "age": "17", "user id": "700", "zipcode": "76309", "occupation": "student"}
{"gender": "F", "age": "51", "user id": "701", "zipcode": "56321", "occupation": "librarian"}
{"gender": "M", "age": "37", "user id": "702", "zipcode": "89104", "occupation": "other"}
{"gender": "M", "age": "26", "user id": "703", "zipcode": "49512", "occupation": "educator"}
{"gender": "F", "age": "51", "user id": "704", "zipcode": "91105", "occupation": "librarian"}
{"gender": "F", "age": "21", "user id": "705", "zipcode": "54494", "occupation": "student"}
{"gender": "M", "age": "23", "user id": "706", "zipcode": "55454", "occupation": "student"}
{"gender": "F", "age": "56", "user id": "707", "zipcode": "19146", "occupation": "librarian"}
{"gender": "F", "age": "26", "user id": "708", "zipcode": "96349", "occupation": "homemaker"}
{"gender": "M", "age": "21", "user id": "709", "zipcode": "N4T1A", "occupation": "other"}
{"gender": "M", "age": "19", "user id": "710", "zipcode": "92020", "occupation": "student"}
{"gender": "F", "age": "22", "user id": "711", "zipcode": "15203", "occupation": "student"}
{"gender": "F", "age": "22", "user id": "712", "zipcode": "54901", "occupation": "student"}
{"gender": "F", "age": "42", "user id": "713", "zipcode": "07204", "occupation": "other"}
{"gender": "M", "age": "26", "user id": "714", "zipcode": "55343", "occupation": "engineer"}
{"gender": "M", "age": "21", "user id": "715", "zipcode": "91206", "occupation": "technician"}
{"gender": "F", "age": "36", "user id": "716", "zipcode": "44265", "occupation": "administrator"}
{"gender": "M", "age": "24", "user id": "717", "zipcode": "84105", "occupation": "technician"}
{"gender": "M", "age": "42", "user id": "718", "zipcode": "64118", "occupation": "technician"}
{"gender": "F", "age": "37", "user id": "719", "zipcode": "V0R2H", "occupation": "other"}
{"gender": "F", "age": "49", "user id": "720", "zipcode": "16506", "occupation": "administrator"}
{"gender": "F", "age": "24", "user id": "721", "zipcode": "11238", "occupation": "entertainment"}
{"gender": "F", "age": "50", "user id": "722", "zipcode": "17331", "occupation": "homemaker"}
{"gender": "M", "age": "26", "user id": "723", "zipcode": "94403", "occupation": "executive"}
{"gender": "M", "age": "31", "user id": "724", "zipcode": "40243", "occupation": "executive"}
{"gender": "M", "age": "21", "user id": "725", "zipcode": "91711", "occupation": "student"}
{"gender": "F", "age": "25", "user id": "726", "zipcode": "80538", "occupation": "administrator"}
{"gender": "M", "age": "25", "user id": "727", "zipcode": "78741", "occupation": "student"}
{"gender": "M", "age": "58", "user id": "728", "zipcode": "94306", "occupation": "executive"}
{"gender": "M", "age": "19", "user id": "729", "zipcode": "56567", "occupation": "student"}
{"gender": "F", "age": "31", "user id": "730", "zipcode": "32114", "occupation": "scientist"}
{"gender": "F", "age": "41", "user id": "731", "zipcode": "70403", "occupation": "educator"}
{"gender": "F", "age": "28", "user id": "732", "zipcode": "98405", "occupation": "other"}
{"gender": "F", "age": "44", "user id": "733", "zipcode": "60630", "occupation": "other"}
{"gender": "F", "age": "25", "user id": "734", "zipcode": "63108", "occupation": "other"}
{"gender": "F", "age": "29", "user id": "735", "zipcode": "85719", "occupation": "healthcare"}
{"gender": "F", "age": "48", "user id": "736", "zipcode": "94618", "occupation": "writer"}
{"gender": "M", "age": "30", "user id": "737", "zipcode": "98072", "occupation": "programmer"}
{"gender": "M", "age": "35", "user id": "738", "zipcode": "95403", "occupation": "technician"}
{"gender": "M", "age": "35", "user id": "739", "zipcode": "73162", "occupation": "technician"}
{"gender": "F", "age": "25", "user id": "740", "zipcode": "22206", "occupation": "educator"}
{"gender": "M", "age": "25", "user id": "741", "zipcode": "63108", "occupation": "writer"}
{"gender": "M", "age": "35", "user id": "742", "zipcode": "29210", "occupation": "student"}
{"gender": "M", "age": "31", "user id": "743", "zipcode": "92660", "occupation": "programmer"}
{"gender": "M", "age": "35", "user id": "744", "zipcode": "47024", "occupation": "marketing"}
{"gender": "M", "age": "42", "user id": "745", "zipcode": "55113", "occupation": "writer"}
{"gender": "M", "age": "25", "user id": "746", "zipcode": "19047", "occupation": "engineer"}
{"gender": "M", "age": "19", "user id": "747", "zipcode": "93612", "occupation": "other"}
{"gender": "M", "age": "28", "user id": "748", "zipcode": "94720", "occupation": "administrator"}
{"gender": "M", "age": "33", "user id": "749", "zipcode": "80919", "occupation": "other"}
{"gender": "M", "age": "28", "user id": "750", "zipcode": "32303", "occupation": "administrator"}
{"gender": "F", "age": "24", "user id": "751", "zipcode": "90034", "occupation": "other"}
{"gender": "M", "age": "60", "user id": "752", "zipcode": "21201", "occupation": "retired"}
{"gender": "M", "age": "56", "user id": "753", "zipcode": "91206", "occupation": "salesman"}
{"gender": "F", "age": "59", "user id": "754", "zipcode": "62901", "occupation": "librarian"}
{"gender": "F", "age": "44", "user id": "755", "zipcode": "97007", "occupation": "educator"}
{"gender": "F", "age": "30", "user id": "756", "zipcode": "90247", "occupation": "none"}
{"gender": "M", "age": "26", "user id": "757", "zipcode": "55104", "occupation": "student"}
{"gender": "M", "age": "27", "user id": "758", "zipcode": "53706", "occupation": "student"}
{"gender": "F", "age": "20", "user id": "759", "zipcode": "68503", "occupation": "student"}
{"gender": "F", "age": "35", "user id": "760", "zipcode": "14211", "occupation": "other"}
{"gender": "M", "age": "17", "user id": "761", "zipcode": "97302", "occupation": "student"}
{"gender": "M", "age": "32", "user id": "762", "zipcode": "95050", "occupation": "administrator"}
{"gender": "M", "age": "27", "user id": "763", "zipcode": "02113", "occupation": "scientist"}
{"gender": "F", "age": "27", "user id": "764", "zipcode": "62903", "occupation": "educator"}
{"gender": "M", "age": "31", "user id": "765", "zipcode": "33066", "occupation": "student"}
{"gender": "M", "age": "42", "user id": "766", "zipcode": "10960", "occupation": "other"}
{"gender": "M", "age": "70", "user id": "767", "zipcode": "00000", "occupation": "engineer"}
{"gender": "M", "age": "29", "user id": "768", "zipcode": "12866", "occupation": "administrator"}
{"gender": "M", "age": "39", "user id": "769", "zipcode": "06927", "occupation": "executive"}
{"gender": "M", "age": "28", "user id": "770", "zipcode": "14216", "occupation": "student"}
{"gender": "M", "age": "26", "user id": "771", "zipcode": "15232", "occupation": "student"}
{"gender": "M", "age": "50", "user id": "772", "zipcode": "27105", "occupation": "writer"}
{"gender": "M", "age": "20", "user id": "773", "zipcode": "55414", "occupation": "student"}
{"gender": "M", "age": "30", "user id": "774", "zipcode": "80027", "occupation": "student"}
{"gender": "M", "age": "46", "user id": "775", "zipcode": "90036", "occupation": "executive"}
{"gender": "M", "age": "30", "user id": "776", "zipcode": "51157", "occupation": "librarian"}
{"gender": "M", "age": "63", "user id": "777", "zipcode": "01810", "occupation": "programmer"}
{"gender": "M", "age": "34", "user id": "778", "zipcode": "01960", "occupation": "student"}
{"gender": "M", "age": "31", "user id": "779", "zipcode": "K7L5J", "occupation": "student"}
{"gender": "M", "age": "49", "user id": "780", "zipcode": "94560", "occupation": "programmer"}
{"gender": "M", "age": "20", "user id": "781", "zipcode": "48825", "occupation": "student"}
{"gender": "F", "age": "21", "user id": "782", "zipcode": "33205", "occupation": "artist"}
{"gender": "M", "age": "30", "user id": "783", "zipcode": "77081", "occupation": "marketing"}
{"gender": "M", "age": "47", "user id": "784", "zipcode": "91040", "occupation": "administrator"}
{"gender": "M", "age": "32", "user id": "785", "zipcode": "23322", "occupation": "engineer"}
{"gender": "F", "age": "36", "user id": "786", "zipcode": "01754", "occupation": "engineer"}
{"gender": "F", "age": "18", "user id": "787", "zipcode": "98620", "occupation": "student"}
{"gender": "M", "age": "51", "user id": "788", "zipcode": "05779", "occupation": "administrator"}
{"gender": "M", "age": "29", "user id": "789", "zipcode": "55420", "occupation": "other"}
{"gender": "M", "age": "27", "user id": "790", "zipcode": "80913", "occupation": "technician"}
{"gender": "M", "age": "31", "user id": "791", "zipcode": "20064", "occupation": "educator"}
{"gender": "M", "age": "40", "user id": "792", "zipcode": "12205", "occupation": "programmer"}
{"gender": "M", "age": "22", "user id": "793", "zipcode": "85281", "occupation": "student"}
{"gender": "M", "age": "32", "user id": "794", "zipcode": "57197", "occupation": "educator"}
{"gender": "M", "age": "30", "user id": "795", "zipcode": "08610", "occupation": "programmer"}
{"gender": "F", "age": "32", "user id": "796", "zipcode": "33755", "occupation": "writer"}
{"gender": "F", "age": "44", "user id": "797", "zipcode": "62522", "occupation": "other"}
{"gender": "F", "age": "40", "user id": "798", "zipcode": "64131", "occupation": "writer"}
{"gender": "F", "age": "49", "user id": "799", "zipcode": "19716", "occupation": "administrator"}
{"gender": "M", "age": "25", "user id": "800", "zipcode": "55337", "occupation": "programmer"}
{"gender": "M", "age": "22", "user id": "801", "zipcode": "92154", "occupation": "writer"}
{"gender": "M", "age": "35", "user id": "802", "zipcode": "34105", "occupation": "administrator"}
{"gender": "M", "age": "70", "user id": "803", "zipcode": "78212", "occupation": "administrator"}
{"gender": "M", "age": "39", "user id": "804", "zipcode": "61820", "occupation": "educator"}
{"gender": "F", "age": "27", "user id": "805", "zipcode": "20009", "occupation": "other"}
{"gender": "M", "age": "27", "user id": "806", "zipcode": "11217", "occupation": "marketing"}
{"gender": "F", "age": "41", "user id": "807", "zipcode": "93555", "occupation": "healthcare"}
{"gender": "M", "age": "45", "user id": "808", "zipcode": "90016", "occupation": "salesman"}
{"gender": "F", "age": "50", "user id": "809", "zipcode": "30803", "occupation": "marketing"}
{"gender": "F", "age": "55", "user id": "810", "zipcode": "80526", "occupation": "other"}
{"gender": "F", "age": "40", "user id": "811", "zipcode": "73013", "occupation": "educator"}
{"gender": "M", "age": "22", "user id": "812", "zipcode": "76234", "occupation": "technician"}
{"gender": "F", "age": "14", "user id": "813", "zipcode": "02136", "occupation": "student"}
{"gender": "M", "age": "30", "user id": "814", "zipcode": "12345", "occupation": "other"}
{"gender": "M", "age": "32", "user id": "815", "zipcode": "28806", "occupation": "other"}
{"gender": "M", "age": "34", "user id": "816", "zipcode": "20755", "occupation": "other"}
{"gender": "M", "age": "19", "user id": "817", "zipcode": "60152", "occupation": "student"}
{"gender": "M", "age": "28", "user id": "818", "zipcode": "27514", "occupation": "librarian"}
{"gender": "M", "age": "59", "user id": "819", "zipcode": "40205", "occupation": "administrator"}
{"gender": "M", "age": "22", "user id": "820", "zipcode": "37725", "occupation": "student"}
{"gender": "M", "age": "37", "user id": "821", "zipcode": "77845", "occupation": "engineer"}
{"gender": "F", "age": "29", "user id": "822", "zipcode": "53144", "occupation": "librarian"}
{"gender": "M", "age": "27", "user id": "823", "zipcode": "50322", "occupation": "artist"}
{"gender": "M", "age": "31", "user id": "824", "zipcode": "15017", "occupation": "other"}
{"gender": "M", "age": "44", "user id": "825", "zipcode": "05452", "occupation": "engineer"}
{"gender": "M", "age": "28", "user id": "826", "zipcode": "77048", "occupation": "artist"}
{"gender": "F", "age": "23", "user id": "827", "zipcode": "80228", "occupation": "engineer"}
{"gender": "M", "age": "28", "user id": "828", "zipcode": "85282", "occupation": "librarian"}
{"gender": "M", "age": "48", "user id": "829", "zipcode": "80209", "occupation": "writer"}
{"gender": "M", "age": "46", "user id": "830", "zipcode": "53066", "occupation": "programmer"}
{"gender": "M", "age": "21", "user id": "831", "zipcode": "33765", "occupation": "other"}
{"gender": "M", "age": "24", "user id": "832", "zipcode": "77042", "occupation": "technician"}
{"gender": "M", "age": "34", "user id": "833", "zipcode": "90019", "occupation": "writer"}
{"gender": "M", "age": "26", "user id": "834", "zipcode": "64153", "occupation": "other"}
{"gender": "F", "age": "44", "user id": "835", "zipcode": "11577", "occupation": "executive"}
{"gender": "M", "age": "44", "user id": "836", "zipcode": "10018", "occupation": "artist"}
{"gender": "F", "age": "36", "user id": "837", "zipcode": "55409", "occupation": "artist"}
{"gender": "M", "age": "23", "user id": "838", "zipcode": "01375", "occupation": "student"}
{"gender": "F", "age": "38", "user id": "839", "zipcode": "90814", "occupation": "entertainment"}
{"gender": "M", "age": "39", "user id": "840", "zipcode": "55406", "occupation": "artist"}
{"gender": "M", "age": "45", "user id": "841", "zipcode": "47401", "occupation": "doctor"}
{"gender": "M", "age": "40", "user id": "842", "zipcode": "93055", "occupation": "writer"}
{"gender": "M", "age": "35", "user id": "843", "zipcode": "44212", "occupation": "librarian"}
{"gender": "M", "age": "22", "user id": "844", "zipcode": "95662", "occupation": "engineer"}
{"gender": "M", "age": "64", "user id": "845", "zipcode": "97405", "occupation": "doctor"}
{"gender": "M", "age": "27", "user id": "846", "zipcode": "47130", "occupation": "lawyer"}
{"gender": "M", "age": "29", "user id": "847", "zipcode": "55417", "occupation": "student"}
{"gender": "M", "age": "46", "user id": "848", "zipcode": "02146", "occupation": "engineer"}
{"gender": "F", "age": "15", "user id": "849", "zipcode": "25652", "occupation": "student"}
{"gender": "M", "age": "34", "user id": "850", "zipcode": "78390", "occupation": "technician"}
{"gender": "M", "age": "18", "user id": "851", "zipcode": "29646", "occupation": "other"}
{"gender": "M", "age": "46", "user id": "852", "zipcode": "94086", "occupation": "administrator"}
{"gender": "M", "age": "49", "user id": "853", "zipcode": "40515", "occupation": "writer"}
{"gender": "F", "age": "29", "user id": "854", "zipcode": "55408", "occupation": "student"}
{"gender": "M", "age": "53", "user id": "855", "zipcode": "04988", "occupation": "librarian"}
{"gender": "F", "age": "43", "user id": "856", "zipcode": "97215", "occupation": "marketing"}
{"gender": "F", "age": "35", "user id": "857", "zipcode": "V1G4L", "occupation": "administrator"}
{"gender": "M", "age": "63", "user id": "858", "zipcode": "09645", "occupation": "educator"}
{"gender": "F", "age": "18", "user id": "859", "zipcode": "06492", "occupation": "other"}
{"gender": "F", "age": "70", "user id": "860", "zipcode": "48322", "occupation": "retired"}
{"gender": "F", "age": "38", "user id": "861", "zipcode": "14085", "occupation": "student"}
{"gender": "M", "age": "25", "user id": "862", "zipcode": "13820", "occupation": "executive"}
{"gender": "M", "age": "17", "user id": "863", "zipcode": "60089", "occupation": "student"}
{"gender": "M", "age": "27", "user id": "864", "zipcode": "63021", "occupation": "programmer"}
{"gender": "M", "age": "25", "user id": "865", "zipcode": "11231", "occupation": "artist"}
{"gender": "M", "age": "45", "user id": "866", "zipcode": "60302", "occupation": "other"}
{"gender": "M", "age": "24", "user id": "867", "zipcode": "92507", "occupation": "scientist"}
{"gender": "M", "age": "21", "user id": "868", "zipcode": "55303", "occupation": "programmer"}
{"gender": "M", "age": "30", "user id": "869", "zipcode": "10025", "occupation": "student"}
{"gender": "M", "age": "22", "user id": "870", "zipcode": "65203", "occupation": "student"}
{"gender": "M", "age": "31", "user id": "871", "zipcode": "44648", "occupation": "executive"}
{"gender": "F", "age": "19", "user id": "872", "zipcode": "74078", "occupation": "student"}
{"gender": "F", "age": "48", "user id": "873", "zipcode": "33763", "occupation": "administrator"}
{"gender": "M", "age": "36", "user id": "874", "zipcode": "37076", "occupation": "scientist"}
{"gender": "F", "age": "24", "user id": "875", "zipcode": "35802", "occupation": "student"}
{"gender": "M", "age": "41", "user id": "876", "zipcode": "20902", "occupation": "other"}
{"gender": "M", "age": "30", "user id": "877", "zipcode": "77504", "occupation": "other"}
{"gender": "F", "age": "50", "user id": "878", "zipcode": "98027", "occupation": "educator"}
{"gender": "F", "age": "33", "user id": "879", "zipcode": "55337", "occupation": "administrator"}
{"gender": "M", "age": "13", "user id": "880", "zipcode": "83702", "occupation": "student"}
{"gender": "M", "age": "39", "user id": "881", "zipcode": "43017", "occupation": "marketing"}
{"gender": "M", "age": "35", "user id": "882", "zipcode": "40503", "occupation": "engineer"}
{"gender": "M", "age": "49", "user id": "883", "zipcode": "50266", "occupation": "librarian"}
{"gender": "M", "age": "44", "user id": "884", "zipcode": "55337", "occupation": "engineer"}
{"gender": "F", "age": "30", "user id": "885", "zipcode": "95316", "occupation": "other"}
{"gender": "M", "age": "20", "user id": "886", "zipcode": "61820", "occupation": "student"}
{"gender": "F", "age": "14", "user id": "887", "zipcode": "27249", "occupation": "student"}
{"gender": "M", "age": "41", "user id": "888", "zipcode": "17036", "occupation": "scientist"}
{"gender": "M", "age": "24", "user id": "889", "zipcode": "78704", "occupation": "technician"}
{"gender": "M", "age": "32", "user id": "890", "zipcode": "97301", "occupation": "student"}
{"gender": "F", "age": "51", "user id": "891", "zipcode": "03062", "occupation": "administrator"}
{"gender": "M", "age": "36", "user id": "892", "zipcode": "45243", "occupation": "other"}
{"gender": "M", "age": "25", "user id": "893", "zipcode": "95823", "occupation": "student"}
{"gender": "M", "age": "47", "user id": "894", "zipcode": "74075", "occupation": "educator"}
{"gender": "F", "age": "31", "user id": "895", "zipcode": "32301", "occupation": "librarian"}
{"gender": "M", "age": "28", "user id": "896", "zipcode": "91505", "occupation": "writer"}
{"gender": "M", "age": "30", "user id": "897", "zipcode": "33484", "occupation": "other"}
{"gender": "M", "age": "23", "user id": "898", "zipcode": "61755", "occupation": "homemaker"}
{"gender": "M", "age": "32", "user id": "899", "zipcode": "55116", "occupation": "other"}
{"gender": "M", "age": "60", "user id": "900", "zipcode": "18505", "occupation": "retired"}
{"gender": "M", "age": "38", "user id": "901", "zipcode": "L1V3W", "occupation": "executive"}
{"gender": "F", "age": "45", "user id": "902", "zipcode": "97203", "occupation": "artist"}
{"gender": "M", "age": "28", "user id": "903", "zipcode": "20850", "occupation": "educator"}
{"gender": "F", "age": "17", "user id": "904", "zipcode": "61073", "occupation": "student"}
{"gender": "M", "age": "27", "user id": "905", "zipcode": "30350", "occupation": "other"}
{"gender": "M", "age": "45", "user id": "906", "zipcode": "70124", "occupation": "librarian"}
{"gender": "F", "age": "25", "user id": "907", "zipcode": "80526", "occupation": "other"}
{"gender": "F", "age": "44", "user id": "908", "zipcode": "68504", "occupation": "librarian"}
{"gender": "F", "age": "50", "user id": "909", "zipcode": "53171", "occupation": "educator"}
{"gender": "M", "age": "28", "user id": "910", "zipcode": "29301", "occupation": "healthcare"}
{"gender": "F", "age": "37", "user id": "911", "zipcode": "53210", "occupation": "writer"}
{"gender": "M", "age": "51", "user id": "912", "zipcode": "06512", "occupation": "other"}
{"gender": "M", "age": "27", "user id": "913", "zipcode": "76201", "occupation": "student"}
{"gender": "F", "age": "44", "user id": "914", "zipcode": "08105", "occupation": "other"}
{"gender": "M", "age": "50", "user id": "915", "zipcode": "60614", "occupation": "entertainment"}
{"gender": "M", "age": "27", "user id": "916", "zipcode": "N2L5N", "occupation": "engineer"}
{"gender": "F", "age": "22", "user id": "917", "zipcode": "20006", "occupation": "student"}
{"gender": "M", "age": "40", "user id": "918", "zipcode": "70116", "occupation": "scientist"}
{"gender": "M", "age": "25", "user id": "919", "zipcode": "14216", "occupation": "other"}
{"gender": "F", "age": "30", "user id": "920", "zipcode": "90008", "occupation": "artist"}
{"gender": "F", "age": "20", "user id": "921", "zipcode": "98801", "occupation": "student"}
{"gender": "F", "age": "29", "user id": "922", "zipcode": "21114", "occupation": "administrator"}
{"gender": "M", "age": "21", "user id": "923", "zipcode": "E2E3R", "occupation": "student"}
{"gender": "M", "age": "29", "user id": "924", "zipcode": "11753", "occupation": "other"}
{"gender": "F", "age": "18", "user id": "925", "zipcode": "49036", "occupation": "salesman"}
{"gender": "M", "age": "49", "user id": "926", "zipcode": "01701", "occupation": "entertainment"}
{"gender": "M", "age": "23", "user id": "927", "zipcode": "55428", "occupation": "programmer"}
{"gender": "M", "age": "21", "user id": "928", "zipcode": "55408", "occupation": "student"}
{"gender": "M", "age": "44", "user id": "929", "zipcode": "53711", "occupation": "scientist"}
{"gender": "F", "age": "28", "user id": "930", "zipcode": "07310", "occupation": "scientist"}
{"gender": "M", "age": "60", "user id": "931", "zipcode": "33556", "occupation": "educator"}
{"gender": "M", "age": "58", "user id": "932", "zipcode": "06437", "occupation": "educator"}
{"gender": "M", "age": "28", "user id": "933", "zipcode": "48105", "occupation": "student"}
{"gender": "M", "age": "61", "user id": "934", "zipcode": "22902", "occupation": "engineer"}
{"gender": "M", "age": "42", "user id": "935", "zipcode": "66221", "occupation": "doctor"}
{"gender": "M", "age": "24", "user id": "936", "zipcode": "32789", "occupation": "other"}
{"gender": "M", "age": "48", "user id": "937", "zipcode": "98072", "occupation": "educator"}
{"gender": "F", "age": "38", "user id": "938", "zipcode": "55038", "occupation": "technician"}
{"gender": "F", "age": "26", "user id": "939", "zipcode": "33319", "occupation": "student"}
{"gender": "M", "age": "32", "user id": "940", "zipcode": "02215", "occupation": "administrator"}
{"gender": "M", "age": "20", "user id": "941", "zipcode": "97229", "occupation": "student"}
{"gender": "F", "age": "48", "user id": "942", "zipcode": "78209", "occupation": "librarian"}
{"gender": "M", "age": "22", "user id": "943", "zipcode": "77841", "occupation": "student"}
